{
  "scripts": {
    "start": "node build/index.js",
    "build": "npm run build:ts && npm run build:public",
    "build:ts": "tsc",
    "postbuild:ts": "npm run lint:check",
    "build:public": "sh ./scripts/build.public.sh",
    "clean": "rimraf build coverage",
    "rebuild": "npm run build",
    "prerebuild": "npm run clean",
    "dev": "nodemon --watch \"src/**/*.ts\" --exec \"node\" --inspect -r ts-node/register \"src/index.ts\"",
    "test": "jest --colors",
    "test:watch": "npm run test -- --watch",
    "lint": "npm run lint:check",
    "lint:fix": "npm run lint:check -- --fix",
    "lint:check": "eslint --ext .js,.ts ./src"
  }
}
